GPL 26
PublicDomain 7
GNUFDL 1
Artistic Licensev2 1
GPLv3+ 113
GPLv2 79
GPLv3 513
GPL/MPL 1
AGPLv3 8
NYSLv0.9982 1
EPL 1
ISC 5
NetBSD 1
GPL/Artistic 2
AGPL 6
MIT 91
CCBYSA 1
WTFPL 11
GNUFDL/CCBYSA 1
Fair License 1
FreeBSD 3
BSD 4
Beer License 2
GPLv2+ 44
Unlicense/Apache2 1
NetBSD/Apache2 1
Zlib 2
MPL2 8
GPLv3 or New BSD 1
EUPL 1
X11 1
Apache2 306
LGPLv2.1 2
LGPL 12
NewBSD 30
Apache2,CC-BY-SA 1
MPL 1
MPL1.1 1
Artistic2 1
Unlicense 2
AGPLv3+ 6
BSD/Apache 1
Expat 1
LGPLv3 1
NCSA 1
